         run       event       nTopo   nIdTracks  nTauTracks       nTaus      nMuons       nElec   nTrueElec   nFakeElec       nPhot   nTruePhot   nFakePhot
      330470  1183721871         873         846         162           9           5          18           0          18          47           0          47
      330470  1183722156         433         388          43           4           0           4           0           4          14           0          14
      330470  1183722158           1           0           0           0           0           0           0           0           0           0           0
      330470  1183722342         468         428          34           3           0           2           0           2          13           0          13
      330470  1183723134         544         502          51           6           4           3           0           3          17           0          17
      330470  1183723677         662         592         100           8           4          15           0          15          35           0          35
      330470  1183724572         614         620         112           7           2           7           0           7          17           0          17
      330470  1183725127         447         457          65           5           1           8           0           8          20           0          20
      330470  1183726136         694         630          89           7           4           6           0           6          20           0          20
      330470  1183727515         471         401          74           4           0           6           0           6          19           0          19
      330470  1183727920         663         673         167          12           2           6           0           6          23           0          23
      330470  1183727953         627         591         102           8           2           9           0           9          25           0          25
      330470  1183728466         491         444          90           9           1          15           0          15          15           0          15
      330470  1183728476         618         526         104           9           0          17           0          17          26           0          26
      330470  1183729021         464         405          91           7           1          12           0          12          12           0          12
      330470  1183729025         485         476          73           5           0           8           0           8          17           0          17
      330470  1183730486         471         400          31           5           3           0           0           0          20           0          20
      330470  1183731705         864         775         184          13           3          21           0          21          49           0          49
      330470  1183731814         711         540          87           8           3           4           0           4          34           0          34
      330470  1183731884         498         372          12           3           1           5           0           5          15           0          15
      330470  1183732647         554         506          98           7           0           9           0           9          19           0          19
      330470  1183733040         446         290          33           4           1           5           0           5          14           0          14
      330470  1183733070         512         561         132           8           1          18           0          18          24           0          24
      330470  1183733727         807         796         142          11           0           7           0           7          35           0          35
      330470  1183734651         416         371          51           5           2           4           0           4          16           0          16
      330470  1183734704         518         447          38           6           5           2           0           2          23           0          23
      330470  1183734871         650         609         109           6           0          15           0          15          19           0          19
      330470  1183735332         479         386          65           9           0           5           0           5          10           0          10
      330470  1183735593         588         449          70           7           2           5           0           5          28           0          28
      330470  1183735786         367         219           8           2           1           0           0           0           9           0           9
      330470  1183736050         666         691          54           4           1          13           0          13          34           0          34
      330470  1183736197         532         486         121           9           5           8           0           8          16           0          16
      330470  1183736364         497         409          60           6           0           6           0           6          15           0          15
      330470  1183736418         543         488          80           6           0          14           0          14          19           0          19
      330470  1183736475         881         714          94           7           0           3           0           3          24           0          24
      330470  1183737047         581         542         112          10           0           8           0           8          23           0          23
      330470  1183737710         560         502         121           7           1          26           0          26          22           0          22
      330470  1183738386         617         476         107           7           2          21           0          21          36           0          36
      330470  1183738728           1           0           0           0           0           0           0           0           0           0           0
      330470  1183738949         426         451          73           7           0           5           0           5          12           0          12
      330470  1183739966         601         431         134          11           1          14           0          14          25           0          25
      330470  1183740967         644         651         130           9           0           7           0           7          23           0          23
      330470  1183741011         286         344          35           4           3           4           0           4          12           0          12
      330470  1183742016         342         304          19           2           2           4           0           4           7           0           7
      330470  1183742376         440         397          37           3           1           2           0           2          11           0          11
      330470  1183742489         192         128           2           1           0           1           0           1           1           0           1
      330470  1183742713         437         432          70           5           2          11           0          11          18           0          18
      330470  1183743040         337         327          22           4           0           3           0           3           7           0           7
      330470  1183743941         482         369          92          10           2          16           0          16          15           0          15
      330470  1183744491         612         653          85           6           1          14           0          14          17           0          17
      330470  1183744557         343         355          53           4           0           4           0           4          10           0          10
      330470  1183744835         491         414          72           6           1           6           0           6          25           0          25
      330470  1183744941         362         385          58           7           2           7           0           7          16           0          16
      330470  1183745001         372         384          32           2           0           9           0           9          14           0          14
      330470  1183745791         422         402         103           7           0          16           0          16          22           0          22
      330470  1183745889         435         380          71           9           0           5           0           5          11           0          11
      330470  1183746019         517         487          73           7           0           7           0           7          25           0          25
      330470  1183746343         590         495          59           6           0           2           0           2          19           0          19
      330470  1183746391         417         433         112           8           2          16           0          16          18           0          18
      330470  1183746668         543         385          64           8           0           8           0           8          21           0          21
      330470  1183746710           8           0           0           0           0           0           0           0           0           0           0
      330470  1183746776         417         359          91           8           1          11           0          11          28           0          28
      330470  1183747953         376         380          25           3           2           4           0           4          12           0          12
      330470  1183748096         544         492          46           5           0           5           0           5          20           0          20
      330470  1183748136         772         649         142          11           2          15           0          15          27           0          27
      330470  1183748263         450         407          52           5           2           8           0           8          17           0          17
      330470  1183748421         526         423          56           6           1           8           0           8          17           0          17
      330470  1183748705         600         526          72           6           2          11           0          11          22           0          22
      330470  1183750758         516         392          45           5           1           5           0           5          16           0          16
      330470  1183750781         443         364          53           7           1           5           0           5          15           0          15
      330470  1183750906         827         758         152          11           3          12           0          12          35           0          35
      330470  1183751782         290         248           8           2           0           0           0           0           4           0           4
      330470  1183752624         431         367          54           5           1           5           0           5          15           0          15
      330470  1183753006         410         398          43           6           0           5           0           5          12           0          12
      330470  1183753030         439         355         129           8           3          24           0          24          22           0          22
      330470  1183753541         480         453          68           6           2           8           0           8          13           0          13
      330470  1183754806         548         427          61           8           0           3           0           3          19           0          19
      330470  1183755085         578         514         127           8           2          16           0          16          27           0          27
      330470  1183756180         533         378          60           6           0           3           0           3          16           0          16
      330470  1183756295         433         451          77           8           2           7           0           7          12           0          12
      330470  1183756303         671         580         152           9           0          26           0          26          26           0          26
      330470  1183756939         698         591          73           5           1          20           0          20          30           0          30
      330470  1183756951         336         270          18           2           1           2           0           2           4           0           4
      330470  1183757556         357         277          48           5           1           5           0           5          10           0          10
      330470  1183758317         796         750         202          13           0          14           0          14          32           0          32
      330470  1183758663         415         314          50           6           0           5           0           5          11           0          11
      330470  1183758709         410         257          31           5           1           4           0           4          12           0          12
      330470  1183758819         529         532         146           9           0          23           0          23          20           0          20
      330470  1183759087         565         456          64           8           1           8           0           8          24           0          24
      330470  1183759951         734         735         185           9           4          23           0          23          36           0          36
      330470  1183760662         501         420          75           8           1           7           0           7          18           0          18
      330470  1183760713         511         489          92           8           0          12           0          12          21           0          21
      330470  1183761092         353         436          41           4           3           7           0           7           9           0           9
      330470  1183762287         450         438          69           9           2           4           0           4          15           0          15
      330470  1183762295         482         428         101           9           1           8           0           8          17           0          17
      330470  1183762346         559         461         124          10           3          29           0          29          29           0          29
      330470  1183762622         471         404          71           8           1           6           0           6          17           0          17
      330470  1183762728         622         504         142           9           1          20           0          20          28           0          28
      330470  1183764544         481         364          59           4           3           9           0           9          16           0          16
      330470  1183764842         690         650         114          10           1          14           0          14          29           0          29
      330470  1183765366         543         519         104           8           0           8           0           8          14           0          14
      330470  1183765436         365         214          38           5           0           5           0           5           5           0           5
      330470  1183767528         741         637         113          10           0           9           0           9          26           0          26
      330470  1183767718         546         455         120          10           1          16           0          16          18           0          18
      330470  1183768132         486         434          50           5           2           5           0           5          17           0          17
      330470  1183768747         693         598         166          12           2          26           0          26          27           0          27
      330470  1183768758         792         733         127           7           1          16           0          16          29           0          29
      330470  1183769295         412         337          23           3           2           0           0           0           6           0           6
      330470  1183769514         450         374          44           6           1           2           0           2          15           0          15
      330470  1183769648         630         583          61           6           3           6           0           6          22           0          22
      330470  1183769939         415         362          39           4           0           7           0           7          13           0          13
      330470  1183770542         623         551         112           9           1          11           0          11          29           0          29
      330470  1183771482         444         437          75           8           1           8           0           8          19           0          19
      330470  1183771836         450         453          27           4           3           2           0           2          13           0          13
      330470  1183771838         499         316          36           5           0           4           0           4          21           0          21
      330470  1183771849         646         440          96           8           0           9           0           9          30           0          30
      330470  1183773222         411         393          21           4           3           2           0           2           3           0           3
      330470  1183773321         675         555         108          10           1           8           0           8          30           0          30
      330470  1183773556         504         376          60           5           1           8           0           8          17           0          17
      330470  1183773832         352         210          18           3           0           2           0           2          13           0          13
      330470  1183774235         380         349          36           3           1          10           0          10          12           0          12
      330470  1183775004         561         400          15           2           1           1           0           1          16           0          16
      330470  1183775209          65           0           0           0           0           0           0           0           0           0           0
      330470  1183776444         525         421          84           8           1           4           0           4          14           0          14
      330470  1183776871         492         442          56           6           2           8           0           8          19           0          19
      330470  1183777434         367         327          48           7           0           4           0           4          12           0          12
      330470  1183777582         494         477          89           7           2           9           0           9          14           0          14
      330470  1183778621         713         651         144          11           0           6           0           6          32           0          32
      330470  1183779564         390         316          29           3           2           6           0           6          10           0          10
      330470  1183779664         495         345         102           9           0          11           0          11          23           0          23
      330470  1183779916         602         527          98          11           1           6           0           6          19           0          19
      330470  1183780039         529         375          30           6           4           2           0           2          19           0          19
      330470  1183780441         650         553          62           6           2          12           0          12          29           0          29
      330470  1183781429         507         492         159          10           0          22           0          22          31           0          31
      330470  1183781526         829         907         235          16           1          15           0          15          42           0          42
      330470  1183782439         542         545         107           8           1           7           0           7          21           0          21
      330470  1183782592         578         570          94           6           1           6           0           6          18           0          18
      330470  1183782928         635         646         104           9           2           7           0           7          30           0          30
      330470  1183783289         593         596         132          10           1          15           0          15          22           0          22
      330470  1183783835         506         466         112           6           0          15           0          15          33           0          33
      330470  1183783921         599         490          96           5           1          20           0          20          37           0          37
      330470  1183784212         641         538         178          14           0          35           0          35          31           0          31
      330470  1183784686         555         487         138          15           4           6           0           6          28           0          28
      330470  1183784788         410         329          64           4           2          17           0          17          18           0          18
      330470  1183785404         791         721         172          13           2          11           0          11          36           0          36
      330470  1183786663         417         436          44           5           1           1           0           1           7           0           7
      330470  1183787021         834         608          64           5           1          12           0          12          35           0          35
      330470  1183787124         517         385          31           4           1           3           0           3          16           0          16
      330470  1183787218         285         197          58           8           0           3           0           3           8           0           8
      330470  1183787604         457         409          85          11           1           6           0           6          21           0          21
      330470  1183787946         382         326          35           4           0           2           0           2           9           0           9
      330470  1183789290         531         436          92          10           0           8           0           8          24           0          24
      330470  1183789772         600         562         157          11           1          18           0          18          26           0          26
      330470  1183791251         286         235          21           3           0           3           0           3          10           0          10
      330470  1183791330         560         699         118           7           2          11           0          11          19           0          19
      330470  1183791750         689         621          83           7           0           8           0           8          22           0          22
      330470  1183792274         445         398         135          11           0          25           0          25          29           0          29
      330470  1183792395         421         293          94           9           0          17           0          17          14           0          14
      330470  1183792990         546         510         150          11           3          27           0          27          27           0          27
      330470  1183793190         464         528          71           6           0          13           0          13          16           0          16
      330470  1183793693         589         624         158          11           1          20           0          20          32           0          32
      330470  1183793783         662         523         111           7           5          19           0          19          31           0          31
      330470  1183794278         529         559          48           3           0           7           0           7          11           0          11
      330470  1183794508         544         476         111           8           1          19           0          19          19           0          19
      330470  1183794655         473         365          26           4           1           3           0           3           6           0           6
      330470  1183794666         921         930         193          11           1          16           0          16          42           0          42
      330470  1183795240         516         457          76           6           4          10           0          10          27           0          27
      330470  1183795260         898         643         104           9           0          10           0          10          43           0          43
      330470  1183795329         547         358          43           8           0           4           0           4          16           0          16
      330470  1183795353         599         615          78           6           0          16           0          16          32           0          32
      330470  1183797124         465         346          15           2           1           4           0           4          14           0          14
      330470  1183797477         418         448          81           6           3          13           0          13          13           0          13
      330470  1183797613         458         344          75           9           1           4           0           4          22           0          22
      330470  1183797726         604         464          43           5           0           5           0           5          19           0          19
      330470  1183797746         433         342          31           5           1           1           0           1           7           0           7
      330470  1183797788         677         507          82           8           2          13           0          13          36           0          36
      330470  1183798102         944         916         287          19           5          15           0          15          41           0          41
      330470  1183798170         479         364          48           7           1           5           0           5          14           0          14
      330470  1183799182         635         498          18           2           0           4           0           4          25           0          25
      330470  1183799941         596         502         138          11           2          14           0          14          21           0          21
      330470  1183800136         657         652         181          14           2          14           0          14          35           0          35
      330470  1183800710         545         474          43           6           0           6           0           6          20           0          20
      330470  1183801077         510         445          53           6           1           6           0           6          23           0          23
      330470  1183801428         438         347          63           7           0           3           0           3          12           0          12
      330470  1183802242         495         391          57           8           2           7           0           7          21           0          21
      330470  1183804252         636         615         124           8           1          12           0          12          26           0          26
      330470  1183804485         532         507         113           8           1          18           0          18          24           0          24
      330470  1183804522         347         235          10           3           1           0           0           0          10           0          10
      330470  1183806136         571         506          72           7           2           6           0           6          21           0          21
      330470  1183806285          12           0           0           0           0           0           0           0           0           0           0
      330470  1183806454         669         711         140           5           2          15           0          15          26           0          26
      330470  1183806526         317         322          41           6           2           2           0           2           7           0           7
      330470  1183807145         575         455         144          12           0          16           0          16          34           0          34
      330470  1183807361         623         598          68           5           1          10           0          10          28           0          28
      330470  1183807825         627         586         142          10           0          15           0          15          30           0          30
      330470  1183808819          73           0           0           0           0           0           0           0           5           0           5
      330470  1183809482         409         320          46           6           0           6           0           6          19           0          19
      330470  1183810229         622         495          79           5           1          11           0          11          32           0          32
      330470  1183810298         554         443         110           6           1          19           0          19          17           0          17
      330470  1183810366         485         450          58           6           0           3           0           3          12           0          12
      330470  1183810794         655         522          64           7           1           4           0           4          23           0          23
      330470  1183810833         401         387          72           7           1           9           0           9          13           0          13
      330470  1183811141         617         500          93          11           3           8           0           8          14           0          14
      330470  1183812547         584         471         119           8           5          20           0          20          25           0          25
      330470  1183812810         355         347          26           4           0           1           0           1          10           0          10
      330470  1183812846         487         471          52           5           0           7           0           7          21           0          21
      330470  1183813497         574         503          38           5           1           7           0           7          24           0          24
      330470  1183814282         274         217           4           1           2           0           0           0           2           0           2
      330470  1183814497         530         496          52           4           1           6           0           6           8           0           8
      330470  1183814582         517         494         128          10           1          12           0          12          24           0          24
      330470  1183815531         499         435          40           4           0          13           0          13          23           0          23
      330470  1183815710         356         324          67           6           1           4           0           4           9           0           9
      330470  1183815765         507         464          61           4           1          14           0          14          23           0          23
      330470  1183815791         762         696         112           9           2           9           0           9          23           0          23
      330470  1183815887         415         316          17           3           0           2           0           2          12           0          12
      330470  1183816290         509         427          82           6           1           6           0           6          18           0          18
      330470  1183817753         439         437          43           5           1           3           0           3          11           0          11
      330470  1183818559         454         528         113           8           1           8           0           8          20           0          20
      330470  1183819555         540         475          90           7           0          11           0          11          18           0          18
      330470  1183819588         493         333          44           5           0           6           0           6           8           0           8
      330470  1183820651         555         473          93           8           0           7           0           7          18           0          18
      330470  1183821157         364         214          22           5           2           2           0           2          11           0          11
      330470  1183821186         715         620         106           9           1          11           0          11          33           0          33
      330470  1183822476         514         503          76           7           0          13           0          13          23           0          23
      330470  1183823625         479         339          57           5           4          13           0          13          13           0          13
      330470  1183824371         422         308          22           5           0           3           0           3          14           0          14
      330470  1183824531         453         365          83           8           3          14           0          14          17           0          17
      330470  1183824603         563         406          64           4           1          14           0          14          29           0          29
      330470  1183824788         556         363          73           9           2           6           0           6          27           0          27
      330470  1183824934         414         458          95           8           2           8           0           8          14           0          14
      330470  1183825276         445         330          31           6           2           2           0           2          12           0          12
      330470  1183826504         617         509         112          12           2           6           0           6          26           0          26
      330470  1183826935         331         251          48           6           0           7           0           7          17           0          17
      330470  1183827424         410         353          85           9           1          22           0          22          19           0          19
      330470  1183828215         629         412         120          10           2          14           0          14          30           0          30
      330470  1183828765         664         594          40           4           1           5           0           5          24           0          24
      330470  1183828961         605         566          47           3           1           6           0           6          21           0          21
      330470  1183829595         574         417          82           9           0           6           0           6          18           0          18
      330470  1183829748         682         617         131          11           0           9           0           9          26           0          26
      330470  1183830135         497         478         125          12           1          14           0          14          24           0          24
      330470  1183830977         400         261          36           4           0           5           0           5          16           0          16
      330470  1183830990         611         534         103           7           2          18           0          18          29           0          29
      330470  1183831582         471         456          79           8           1           7           0           7          23           0          23
      330470  1183832519         620         508         140           9           1          19           0          19          27           0          27
      330470  1183832772         352         358         121           9           0          25           0          25          15           0          15
      330470  1183834476         605         536         152          17           6          11           0          11          28           0          28
      330470  1183835286         412         351          41           5           0           2           0           2          14           0          14
      330470  1183836095         479         312          30           4           1           6           0           6          23           0          23
      330470  1183836112         617         534          86           6           0          10           0          10          22           0          22
      330470  1183836199         547         471          59           5           0           8           0           8          17           0          17
      330470  1183836240         590         583          47           6           2           5           0           5          13           0          13
      330470  1183836600         585         434          77           9           0          10           0          10          28           0          28
      330470  1183837702         536         432         123          11           3          17           0          17          30           0          30
      330470  1183837736         547         487          57           5           0           9           0           9          19           0          19
      330470  1183839277         695         573         158          13           0          22           0          22          45           0          45
      330470  1183839321         501         351          55           8           2           1           0           1          21           0          21
      330470  1183839551         559         443         119          10           0           5           0           5          27           0          27
      330470  1183840149         540         452         122          11           1          10           0          10          23           0          23
      330470  1183840173           3           0           0           0           1           0           0           0           0           0           0
      330470  1183840255         468         491         138           7           0          20           0          20          27           0          27
      330470  1183840606         212         247          17           4           0           3           0           3           5           0           5
      330470  1183841326         511         464          58           6           0           5           0           5          15           0          15
      330470  1183841473         606         464          97           9           3          10           0          10          19           0          19
      330470  1183841864         474         330          29           4           1           5           0           5          17           0          17
      330470  1183842339         229         155           6           1           0           0           0           0           4           0           4
      330470  1183842483         636         506          54           5           0           5           0           5          20           0          20
      330470  1183842622         471         444          65           5           0           8           0           8          20           0          20
      330470  1183842772         511         464         100           8           1          16           0          16          23           0          23
      330470  1183843837         426         373          33           2           0           7           0           7          15           0          15
      330470  1183844385         478         393          43           5           0           4           0           4           9           0           9
      330470  1183846886         462         264          21           4           0           5           0           5          22           0          22
      330470  1183847401         532         463          59           7           1          10           0          10          19           0          19
      330470  1183847806         522         483         104           7           0          14           0          14          23           0          23
      330470  1183848014         308         273          88           6           1          16           0          16          12           0          12
      330470  1183848066         394         395          87           7           0          11           0          11          23           0          23
      330470  1183848576         624         597          63           5           2           4           0           4          22           0          22
      330470  1183848643         641         479          61           7           5           6           0           6          29           0          29
      330470  1183848807         414         361          33           4           0           1           0           1          16           0          16
      330470  1183849444         471         340          56           7           2           4           0           4          22           0          22
      330470  1183849956         286         281          93          11           1          10           0          10          12           0          12
      330470  1183850785         398         370          39           4           1           6           0           6          13           0          13
      330470  1183851527         726         571          70           6           1          10           0          10          31           0          31
      330470  1183852090         536         451          70           7           3           6           0           6          18           0          18
      330470  1183852355         496         422          32           4           0           4           0           4          14           0          14
      330470  1183852362         666         665         148          10           1          15           0          15          30           0          30
      330470  1183852486         445         407          73           8           0           5           0           5          14           0          14
      330470  1183852552         598         472         115           7           2          17           0          17          24           0          24
      330470  1183853281         471         390          37           4           2           5           0           5          19           0          19
      330470  1183853303         671         524          68           8           3           6           0           6          30           0          30
      330470  1183853317         375         329          54           6           2           6           0           6          15           0          15
      330470  1183853842         761         589          97          10           1          12           0          12          31           0          31
      330470  1183854086         367         361          51           6           0           6           0           6          14           0          14
      330470  1183854099         541         521          71           7           0           3           0           3          14           0          14
      330470  1183854665         595         458          63           5           1           6           0           6          16           0          16
      330470  1183855151         315         212          18           3           0           2           0           2           3           0           3
      330470  1183855909         360         282          10           3           5           2           0           2           6           0           6
      330470  1183856263         670         628         119           9           3          12           0          12          28           0          28
      330470  1183856484         351         260          45           6           2           7           0           7          16           0          16
      330470  1183856702         419         283          35           4           2           1           0           1           8           0           8
      330470  1183856842         457         401          97           8           0           9           0           9          22           0          22
      330470  1183857840         487         330          35           5           0           1           0           1          14           0          14
      330470  1183858892         554         512          76           4           1           8           0           8          15           0          15
      330470  1183859367         668         534          88           9           0           5           0           5          28           0          28
      330470  1183859426         750         573         132           9           1          24           0          24          36           0          36
      330470  1183859771         637         597         140          11           3          14           0          14          29           0          29
      330470  1183861290         633         456         101          12           2           9           0           9          25           0          25
      330470  1183862039         372         357          55           5           0           9           0           9          15           0          15
      330470  1183862102         498         490          70           6           1           6           0           6          15           0          15
      330470  1183864358         446         493          76           7           1           6           0           6          20           0          20
      330470  1183864963         468         469          83           6           1           7           0           7          13           0          13
      330470  1183865268         470         467          30           4           1           1           0           1          11           0          11
      330470  1183865985         373         294          40           6           0           2           0           2          14           0          14
      330470  1183867774         403         443          87           7           0           9           0           9          12           0          12
      330470  1183868866         597         558          59           5           0          10           0          10          19           0          19
      330470  1183869024         651         537         119          10           2          11           0          11          32           0          32
      330470  1183869310         468         345          33           5           3           1           0           1          18           0          18
      330470  1183869356         309         338          37           6           0           1           0           1           7           0           7
      330470  1183870427         370         230          50           8           1           5           0           5          12           0          12
      330470  1183871236         460         315          25           4           0           5           0           5          15           0          15
      330470  1183872430         353         310          65           8           1           3           0           3           9           0           9
      330470  1183873300         451         372          55           5           1           5           0           5          16           0          16
      330470  1183874095         642         646         212          18           3           9           0           9          27           0          27
      330470  1183874756         371         209          15           3           1           1           0           1          10           0          10
      330470  1183875240         753         769          80           6           1          12           0          12          29           0          29
      330470  1183875307         469         285          23           4           1           2           0           2          15           0          15
      330470  1183875842         393         413          38           5           0           3           0           3          16           0          16
      330470  1183876008         400         266          56           5           0           8           0           8          15           0          15
      330470  1183876257         325         373          89           8           0          15           0          15          16           0          16
      330470  1183876690         474         424          32           3           0           4           0           4          11           0          11
      330470  1183878183         547         394          57           4           2           7           0           7          18           0          18
      330470  1183878278         406         375          34           4           1           7           0           7          11           0          11
      330470  1183878363         630         583         109           6           2          14           0          14          29           0          29
      330470  1183879080         730         649          95           8           3          10           0          10          37           0          37
      330470  1183879154         721         626          73           6           2           7           0           7          34           0          34
      330470  1183879547         512         444          25           3           1           0           0           0          15           0          15
      330470  1183879670         573         532         128           8           2          12           0          12          22           0          22
      330470  1183879957         593         587         128          11           0          12           0          12          31           0          31
      330470  1183880152         394         451          35           5           3           1           0           1          17           0          17
      330470  1183880330         847         566         216          17           2          24           0          24          51           0          51
      330470  1183880565         634         379         102          12           1           9           0           9          39           0          39
      330470  1183880598         396         343          33           5           1           1           0           1           9           0           9
      330470  1183881102         353         276          30           5           0           1           0           1           8           0           8
      330470  1183881663         447         434          84           7           0          11           0          11          18           0          18
      330470  1183882016         491         462          66           7           0           3           0           3          16           0          16
      330470  1183882345         487         569         120          11           0           3           0           3          19           0          19
      330470  1183882414         468         322          29           6           3           2           0           2          14           0          14
      330470  1183882641         432         270          58           7           1           7           0           7          18           0          18
      330470  1183882886         485         489          35           4           2           4           0           4          13           0          13
      330470  1183884717         298         263          12           3           0           2           0           2           6           0           6
      330470  1183885069         338         242          58           4           4          13           0          13          14           0          14
      330470  1183885910         352         360          52           6           0          13           0          13          16           0          16
      330470  1183889121         425         378         114          11           0          12           0          12          26           0          26
      330470  1183889788         409         469         134          10           2          12           0          12          22           0          22
      330470  1183890058         498         387          49           5           0           7           0           7          22           0          22
      330470  1183890245         663         582          58           6           1           6           0           6          27           0          27
      330470  1183891126         595         515          80           7           3           9           0           9          21           0          21
      330470  1183891888         618         591         118           8           3          12           0          12          16           0          16
      330470  1183893310         422         398          59           6           0           4           0           4          15           0          15
      330470  1183893518         599         623          97           7           4           9           0           9          14           0          14
      330470  1183894187         550         446          76           5           1          14           0          14          15           0          15
      330470  1183895022         544         449          59           6           1           4           0           4          15           0          15
      330470  1183896389         395         412          49           4           1           7           0           7          13           0          13
      330470  1183896930         590         499          60           7           1           4           0           4          22           0          22
      330470  1183896962         605         486         106          10           2           8           0           8          34           0          34
      330470  1183898226         517         456          25           5           3           3           0           3          13           0          13
      330470  1183899486         634         701         111           9           0          16           0          16          27           0          27
      330470  1183899562         316         245          49           5           2           7           0           7          13           0          13
      330470  1183899751         417         353          38           4           2           7           0           7          13           0          13
      330470  1183899810         472         341          49           7           0           5           0           5          23           0          23
      330470  1183900525         495         346          85           6           3           9           0           9          20           0          20
      330470  1183900622         434         301          65           5           4          11           0          11           9           0           9
      330470  1183900768         639         622          91           6           1           7           0           7          24           0          24
      330470  1183901965         432         362          50           6           1           6           0           6          15           0          15
      330470  1183902483         484         563          37           4           1           4           0           4          16           0          16
      330470  1183903458         617         608         169          13           3          13           0          13          22           0          22
      330470  1183904017         582         573          55           3           2          11           0          11          18           0          18
      330470  1183904322         537         490          42           4           1           3           0           3          10           0          10
      330470  1183905778         479         506          77           6           0           8           0           8          14           0          14
      330470  1183905825         509         390          49           5           2           5           0           5          14           0          14
      330470  1183906093         638         525          55           7           1           7           0           7          25           0          25
      330470  1183906408         558         514         106           8           1          16           0          16          19           0          19
      330470  1183906803         432         326         119          11           0          21           0          21          34           0          34
      330470  1183907843         581         490         115           8           1          10           0          10          13           0          13
      330470  1183908667         419         468          89           9           1           6           0           6          11           0          11
      330470  1183908690         524         525          59           6           2           5           0           5          27           0          27
      330470  1183908710         495         487          44           3           2           3           0           3          14           0          14
      330470  1183908744         640         561          60           6           2           3           0           3          22           0          22
      330470  1183909765         566         403         102          11           0          14           0          14          30           0          30
      330470  1183910082         830         609         111          12           4           8           0           8          31           0          31
      330470  1183910510         298         326          51           4           1           6           0           6          10           0          10
      330470  1183910733         466         439          87           9           2          10           0          10          13           0          13
      330470  1183912333         705         522         107          10           3          16           0          16          44           0          44
      330470  1183914006         489         402          85          10           0          15           0          15          25           0          25
      330470  1183914114         668         560         133          12           0          14           0          14          29           0          29
      330470  1183916856         372         377          37           3           0           2           0           2          13           0          13
      330470  1183918650         443         424          76           7           1           8           0           8          18           0          18
      330470  1183918694         421         433          41           4           0           2           0           2           7           0           7
      330470  1183919637         522         532          69           7           2           5           0           5          14           0          14
      330470  1183919773         279         207          13           3           0           2           0           2           7           0           7
      330470  1183919850         362         327          45           4           0           4           0           4           9           0           9
      330470  1183920419         550         454          58           7           0           2           0           2          17           0          17
      330470  1183920452         639         496          85           9           0           5           0           5          21           0          21
      330470  1183921161         585         531          71           5           2           4           0           4          23           0          23
      330470  1183921212         702         626         114          10           4          17           0          17          28           0          28
      330470  1183921894         141           0           0           0           0           0           0           0           3           0           3
      330470  1183922353         697         548          66           4           0          11           0          11          24           0          24
      330470  1183923963         481         452          39           5           0           6           0           6          13           0          13
      330470  1183924996         459         385          17           2           3           3           0           3           8           0           8
      330470  1183926015         490         366          63           9           0           5           0           5          18           0          18
      330470  1183927700         394         321          53           8           0           6           0           6           5           0           5
      330470  1183927897         454         345          30           4           0           4           0           4          11           0          11
      330470  1183929011         536         454         102           8           0          11           0          11          30           0          30
      330470  1183929579         525         377          64           9           3           2           0           2          16           0          16
      330470  1183929756         741         759         172          10           0          18           0          18          34           0          34
      330470  1183930152         536         419          88           9           1           4           0           4          13           0          13
      330470  1183930444         412         383          43           5           1           3           0           3          16           0          16
      330470  1183930564         641         431         119          11           1          11           0          11          37           0          37
      330470  1183931811         541         372          50           6           0          10           0          10          20           0          20
      330470  1183932465         525         537          92           9           2          10           0          10          17           0          17
      330470  1183933264         626         448          31           5           1           5           0           5          13           0          13
      330470  1183934061         647         610         147          10           0          15           0          15          31           0          31
      330470  1183934188         663         635         118          10           0          12           0          12          28           0          28
      330470  1183935176         589         635         108           9           0           8           0           8          24           0          24
      330470  1183935243         473         433         123           7           2          14           0          14          23           0          23
      330470  1183936048         577         442         142          14           0          14           0          14          28           0          28
      330470  1183937915         422         334          48           5           0           5           0           5          13           0          13
      330470  1183937927         598         541          85           7           1           9           0           9          24           0          24
      330470  1183938712         494         383          54           8           1           4           0           4          23           0          23
      330470  1183938824         394         396          83          10           1           4           0           4          10           0          10
      330470  1183939219         601         502          43           4           2           9           0           9          17           0          17
      330470  1183939285         315         162          24           5           0           5           0           5           8           0           8
      330470  1183939881         653         513          85           8           1           7           0           7          21           0          21
      330470  1183941479         328         334           8           1           0           2           0           2           6           0           6
      330470  1183943435          25           0           0           0           0           0           0           0           0           0           0
      330470  1183944121         509         399          74           8           1           6           0           6          26           0          26
      330470  1183944525         494         496          53           6           1           6           0           6          15           0          15
      330470  1183946835         914         898         163          10           2          30           0          30          40           0          40
      330470  1183949177         484         468          69           5           0           6           0           6          17           0          17
      330470  1183949782         655         521         102          10           1          13           0          13          22           0          22
      330470  1183952907         657         649          96           7           3          10           0          10          17           0          17
      330470  1183953399         654         475          65           6           0          12           0          12          34           0          34
      330470  1183953421         575         329          51           7           1           3           0           3          13           0          13
      330470  1183953881         407         369          28           4           1           2           0           2           6           0           6
      330470  1183954827         411         432          62           7           1           7           0           7          15           0          15
      330470  1183957781           3           0           0           0           0           0           0           0           0           0           0
      330470  1183958083         416         376          75           5           1          11           0          11          13           0          13
      330470  1183960085         693         583         123          10           4           9           0           9          15           0          15
      330470  1183960556         428         353          50           6           0           4           0           4           8           0           8
      330470  1183961006         536         454         111          10           1          14           0          14          25           0          25
      330470  1183961573         736         720         165          11           3          11           0          11          27           0          27
      330470  1183961597         419         257          38           6           1           4           0           4          17           0          17
      330470  1183963195         624         571         119          13           2          13           0          13          22           0          22
      330470  1183969128         352         350          73           7           1          13           0          13          18           0          18
      330470  1183969905         675         599         117          10           1          18           0          18          26           0          26
      330470  1183970393         410         360          85           7           0           8           0           8          15           0          15
      330470  1183970582         217         223          28           4           1           2           0           2           5           0           5
      330470  1183973235         632         534          85           6           1           5           0           5          19           0          19
      330470  1183974800         445         404          56           5           0           4           0           4          16           0          16
      330470  1183975144         502         518         101           9           0          10           0          10          31           0          31
      330470  1183977930         310         294          17           2           0           6           0           6          10           0          10
      330470  1183979636         511         501          70           5           0           4           0           4          11           0          11
      330470  1183982156         440         453          36           2           1           4           0           4           8           0           8
      330470  1183982855         536         401          51           7           2           2           0           2          15           0          15
      330470  1183983079         636         548          94           7           1           7           0           7          32           0          32
      330470  1183983113         483         374          23           2           0           3           0           3          17           0          17
      330470  1183984897         386         293          49           5           0          15           0          15          13           0          13
      330470  1183985311         506         574          87           6           0          14           0          14          15           0          15
      330470  1183987027         545         473         120           8           0           7           0           7          22           0          22
      330470  1183988197         463         423          44           6           3           5           0           5          20           0          20
      330470  1183991258         443         394          37           6           1           2           0           2          13           0          13
      330470  1183991399         975         821         118          11           1          11           0          11          51           0          51
      330470  1183994870         603         544          99           9           0          16           0          16          27           0          27
      330470  1183995076         279         204           9           1           0           1           0           1           5           0           5
      330470  1183995604         473         354          63           7           0           2           0           2          13           0          13
      330470  1183995956         461         391          39           3           0           8           0           8          14           0          14
      330470  1183997552         617         535         102          11           0           6           0           6          23           0          23
      330470  1183997623         477         325          52           7           1           6           0           6          18           0          18
      330470  1183997905         414         318          29           4           0           2           0           2           7           0           7
      330470  1184001332         513         405          91           7           3          12           0          12          26           0          26
      330470  1184003671         496         385          76          10           1           8           0           8          16           0          16
      330470  1184007839         495         442          82           7           2          10           0          10          17           0          17
      330470  1184010792         585         468          59           6           0           5           0           5          16           0          16
      330470  1184011907         411         413          81           8           1           2           0           2          17           0          17
      330470  1184012123         433         330          62           6           0          11           0          11          21           0          21
      330470  1184013681         371         240          26           5           0           1           0           1          13           0          13
      330470  1184014074         417         359          66           8           0           3           0           3          14           0          14
      330470  1184016450         572         505         112          10           0          14           0          14          30           0          30
      330470  1184019719         494         370          60           8           1           4           0           4          22           0          22
      330470  1184020401         654         455          66           8           1           9           0           9          29           0          29
      330470  1184026109         482         336          77           9           0          12           0          12          21           0          21
      330470  1184026603         720         614         139          11           2          11           0          11          30           0          30
      330470  1184027737         573         486          64           7           0           0           0           0          18           0          18
      330470  1184028312         676         585         163          16           1          11           0          11          34           0          34
      330470  1184044299         125           0           0           0           0           0           0           0           0           0           0
      330470  1184045730         438         463          50           5           2           6           0           6          14           0          14
      330470  1184048892         575         472         123          11           1           9           0           9          31           0          31
      330470  1184054880         457         338           7           1           0           2           0           2           9           0           9
      330470  1184055196         384         270          33           5           1           4           0           4          10           0          10
      330470  1184064491          85           0           0           1           0           0           0           0           0           0           0
      330470  1184065397         109           0           0           0           0           0           0           0           4           0           4
